<?xml version="1.0" encoding="utf-8"?>
<!-- Generator: Adobe Illustrator 18.0.0, SVG Export Plug-In . SVG Version: 6.00 Build 0)  -->
<!DOCTYPE svg PUBLIC "-//W3C//DTD SVG 1.1//EN" "http://www.w3.org/Graphics/SVG/1.1/DTD/svg11.dtd">
<svg version="1.1" id="Layer_1" xmlns="http://www.w3.org/2000/svg" xmlns:xlink="http://www.w3.org/1999/xlink" x="0px" y="0px"
	 viewBox="0 0 108.5 97.1" enable-background="new 0 0 108.5 97.1" xml:space="preserve">
<path fill="#FFFFFF" d="M86.5,5.5H22c-5.9,0-10.8,4.8-10.8,10.7v64.5c0,5.9,4.8,10.8,10.8,10.8h32.6V60.7H44.3V47.3h10.3v-6.7
	c0-10.4,7.7-18.5,17.4-18.5h9.5v15.2h-8.5c-2.2,0-2.9,1.3-2.9,3v7h11.4v13.4H70.2v30.8h16.3c5.9,0,10.8-4.8,10.8-10.8V16.3
	C97.3,10.4,92.4,5.5,86.5,5.5z"/>
</svg>
